Models III: Linear Models in Ag-Data Science – PLNT6800 - Winter 2025
…
# Tidy summary of coefficients
anova_coefs <- broom::tidy(lm_05)
anova_coefs

# A tibble: 50 × 5
   term        estimate std.error statistic  p.value
   <chr>          <dbl>     <dbl>     <dbl>    <dbl>
 1 (Intercept) -29304.   1861.     -15.7    5.43e-54
 2 nfN1            71.3  2621.       0.0272 9.78e- 1
 3 nfN2           409.   2621.       0.156  8.76e- 1
 4 nfN3          3143.   2653.       1.18   2.36e- 1
 5 nfN4          2470.   2637.       0.937  3.49e- 1
 6 nfN5          2725.   2671.       1.02   3.08e- 1
 7 year            14.7     0.930   15.8    3.01e-54
 8 topoHT       38406.   2590.      14.8    2.95e-48
 9 topoLO        -839.   2527.      -0.332  7.40e- 1
10 topoW        25181.   2438.      10.3    1.23e-24
# ℹ 40 more rows
…
