Transforming Ag data with dplyr – PLNT6800 - Winter 2025
…
A tibble is a modern version of a data frame, introduced by the tibble package. It offers several improvements:

•   Tibbles don’t convert characters to factors by default.
•   Printing is more concise and doesn’t overwhelm you with too much data.
•   Tibbles are more explicit with column types when printed.

2.2.1 create a tibble

# Convert the wheat data frame to a tibble
wheat_tibble <- as_tibble(wheat_data)

# Check the structure of the tibble
wheat_tibble

# A tibble: 480 × 4
   rotation nitro  year yield
   <fct>    <int> <int> <dbl>
 1 AB           0  1981  3.84
 2 AB          70  1981  6.59
 3 AB         140  1981  7.49
 4 AB         210  1981  7.39
 5 AF           0  1981  3.06
 6 AF          70  1981  6.32
 7 AF         140  1981  7.61
 8 AF         210  1981  7.78
 9 Ln3          0  1981  5.82
10 Ln3         70  1981  7.52
# ℹ 470 more rows
…
# Print the tibble (shows only first 10 rows and column types)
print(wheat_tibble)

# A tibble: 480 × 4
   rotation nitro  year yield
   <fct>    <int> <int> <dbl>
 1 AB           0  1981  3.84
 2 AB          70  1981  6.59
 3 AB         140  1981  7.49
 4 AB         210  1981  7.39
 5 AF           0  1981  3.06
 6 AF          70  1981  6.32
 7 AF         140  1981  7.61
 8 AF         210  1981  7.78
 9 Ln3          0  1981  5.82
10 Ln3         70  1981  7.52
# ℹ 470 more rows
…
